TreeGrowthLab
…
Question 19: In a single summarize call, find the number of unique years with records in the data set along with the first and last year recorded?

There are 111 years in the data set and the first year recorded was 1897 while the last year on record was 2007.

# A tibble: 1 × 3
  unique lastyear firstyear
   <int>    <dbl>     <dbl>
1    111     2007      1897

Question 20: Determine the stands with the largest number of unique years recorded. Report all stands with largest (or tied with the largest) temporal record.

Stands 1, 15, 16, 17, and 24 were all tied for the largest temporal record, with each stand having 111 years of data.

# A tibble: 35 × 2
   standID longest
     <dbl>   <int>
 1       1     111
 2      15     111
 3      16     111
 4      17     111
 5      24     111
 6       4     110
 7      27     109
 8       2     105
 9      19     105
10      26      94
# ℹ 25 more rows
…
